\relax 
\@writefile{toc}{\contentsline {section}{\numberline {1}会议内容}{1}{}\protected@file@percent }
\@writefile{toc}{\contentsline {subsection}{\numberline {1.1}议题1}{1}{}\protected@file@percent }
\@writefile{toc}{\contentsline {subsection}{\numberline {1.2}议题2}{1}{}\protected@file@percent }
\@writefile{toc}{\contentsline {section}{\numberline {2}下一步计划}{1}{}\protected@file@percent }
\gdef \@abspage@last{1}
